{
  "_fv": 24,
  "_type": "overlay",
  "definition": {
    "priority": "HIGHEST",
    "components": [
      {
        "type": "image",
        "data": {
          "image": "healthmax.png",
          "use1Xscale": false,
          "displayCondition": {
            "name": "HealthBarConMax20"
          },
          "name": "healthmax.png",
          "x": 6,
          "y": 224
        }
      },
      {
        "type": "image",
        "data": {
          "image": "healthtick.png",
          "use1Xscale": false,
          "displayCondition": {
            "name": "HealthBarCon1"
          },
          "name": "healthtick.png",
          "x": 6,
          "y": 224
        }
      },
      {
        "type": "image",
        "data": {
          "image": "healthtick.png",
          "use1Xscale": false,
          "displayCondition": {
            "name": "HealthBarCon2"
          },
          "name": "healthtick.png",
          "x": 10,
          "y": 224
        }
      },
      {
        "type": "image",
        "data": {
          "image": "healthtick.png",
          "use1Xscale": false,
          "displayCondition": {
            "name": "HealthBarCon3"
          },
          "name": "healthtick.png",
          "x": 14,
          "y": 224
        }
      },
      {
        "type": "image",
        "data": {
          "image": "healthtick.png",
          "use1Xscale": false,
          "displayCondition": {
            "name": "HealthBarCon4"
          },
          "name": "healthtick.png",
          "x": 18,
          "y": 224
        }
      },
      {
        "type": "image",
        "data": {
          "image": "healthtick.png",
          "use1Xscale": false,
          "displayCondition": {
            "name": "HealthBarCon5"
          },
          "name": "healthtick.png",
          "x": 22,
          "y": 224
        }
      },
      {
        "type": "image",
        "data": {
          "image": "healthtick.png",
          "use1Xscale": false,
          "displayCondition": {
            "name": "HealthBarCon6"
          },
          "name": "healthtick.png",
          "x": 26,
          "y": 224
        }
      },
      {
        "type": "image",
        "data": {
          "image": "healthtick.png",
          "use1Xscale": false,
          "displayCondition": {
            "name": "HealthBarCon7"
          },
          "name": "healthtick.png",
          "x": 30,
          "y": 224
        }
      },
      {
        "type": "image",
        "data": {
          "image": "healthtick.png",
          "use1Xscale": false,
          "displayCondition": {
            "name": "HealthBarCon8"
          },
          "name": "healthtick.png",
          "x": 34,
          "y": 224
        }
      },
      {
        "type": "image",
        "data": {
          "image": "healthtick.png",
          "use1Xscale": false,
          "displayCondition": {
            "name": "HealthBarCon9"
          },
          "name": "healthtick.png",
          "x": 38,
          "y": 224
        }
      },
      {
        "type": "image",
        "data": {
          "image": "healthtick.png",
          "use1Xscale": false,
          "displayCondition": {
            "name": "HealthBarCon10"
          },
          "name": "healthtick.png",
          "x": 42,
          "y": 224
        }
      },
      {
        "type": "image",
        "data": {
          "image": "healthmax.png",
          "use1Xscale": false,
          "displayCondition": {
            "name": "HealthBarConMax40"
          },
          "name": "healthmax.png",
          "x": 6,
          "y": 216
        }
      },
      {
        "type": "image",
        "data": {
          "image": "healthtick.png",
          "use1Xscale": false,
          "displayCondition": {
            "name": "HealthBarCon11"
          },
          "name": "healthtick.png",
          "x": 46,
          "y": 224
        }
      },
      {
        "type": "image",
        "data": {
          "image": "hidehealthbar.png",
          "use1Xscale": false,
          "name": "hidehealthbar.png",
          "x": 122,
          "y": 208
        }
      }
    ],
    "baseTexture": "",
    "overlayTarget": "Ingame",
    "gridSettings": {
      "sx": 8,
      "sy": 8,
      "ox": 11,
      "oy": 15,
      "snapOnGrid": true
    }
  }
}